aes_testbench.vcd
$date
	Sat Dec 07 20:03:10 2024
$end
$version
	Icarus Verilog
$end
$timescale
	1ps
$end
$scope module aes_testbench $end
$var wire 4 ! round [3:0] $end
$var wire 128 " cypherText [127:0] $end
$var reg 128 # aes_key [127:0] $end
$var reg 1 $ clk $end
$var reg 128 % data [127:0] $end
$var reg 1 & reset_signal $end
$var reg 1 ' start $end
$scope module cp_inst $end
$var wire 1 $ clk $end
$var wire 128 ( data [0:127] $end
$var wire 128 ) key [0:127] $end
$var wire 1 & reset $end
$var wire 1 ' start $end
$var wire 128 * keyExpansionOut [0:127] $end
$var wire 128 + datapath_out [0:127] $end
$var reg 128 , currentKey [0:127] $end
$var reg 128 - cypherText [0:127] $end
$var reg 128 . data_in [0:127] $end
$var reg 1 / expanEn $end
$var reg 128 0 nextRoundKey [0:127] $end
$var reg 4 1 round [0:3] $end
$var reg 128 2 roundKey [0:127] $end
$scope module datapath_inst $end
$var wire 128 3 data_in [0:127] $end
$var wire 1 & reset $end
$var wire 4 4 round [0:3] $end
$var wire 128 5 roundKey [0:127] $end
$var wire 128 6 shiftRowsOut [0:127] $end
$var wire 128 7 mixColOut [0:127] $end
$var wire 128 8 keyAddOut [0:127] $end
$var wire 128 9 byteSubOut [0:127] $end
$var reg 128 : byteSubIn [0:127] $end
$var reg 128 ; data_out [0:127] $end
$var reg 1 < enBS $end
$var reg 128 = keyAddData_in [0:127] $end
$var reg 1 > keyAddEn $end
$var reg 128 ? keyAddKey_In [0:127] $end
$var reg 128 @ mixColIn [0:127] $end
$var reg 1 A mixEn $end
$var reg 1 B shiftEn $end
$var reg 128 C shiftRowsIn [0:127] $end
$scope module BS_inst $end
$var wire 1 < enBS $end
$var wire 128 D in [127:0] $end
$var wire 1 & reset $end
$var wire 128 E bs_out [127:0] $end
$var reg 128 F byteSubOut [127:0] $end
$scope module s0 $end
$var wire 32 G in [0:31] $end
$var wire 32 H out [0:31] $end
$scope begin genblk1[7] $end
$var parameter 4 I i $end
$scope module s $end
$var wire 8 J in [0:7] $end
$var reg 8 K out [0:7] $end
$upscope $end
$upscope $end
$scope begin genblk1[15] $end
$var parameter 5 L i $end
$scope module s $end
$var wire 8 M in [0:7] $end
$var reg 8 N out [0:7] $end
$upscope $end
$upscope $end
$scope begin genblk1[23] $end
$var parameter 6 O i $end
$scope module s $end
$var wire 8 P in [0:7] $end
$var reg 8 Q out [0:7] $end
$upscope $end
$upscope $end
$scope begin genblk1[31] $end
$var parameter 6 R i $end
$scope module s $end
$var wire 8 S in [0:7] $end
$var reg 8 T out [0:7] $end
$upscope $end
$upscope $end
$upscope $end
$scope module s1 $end
$var wire 32 U in [0:31] $end
$var wire 32 V out [0:31] $end
$scope begin genblk1[7] $end
$var parameter 4 W i $end
$scope module s $end
$var wire 8 X in [0:7] $end
$var reg 8 Y out [0:7] $end
$upscope $end
$upscope $end
$scope begin genblk1[15] $end
$var parameter 5 Z i $end
$scope module s $end
$var wire 8 [ in [0:7] $end
$var reg 8 \ out [0:7] $end
$upscope $end
$upscope $end
$scope begin genblk1[23] $end
$var parameter 6 ] i $end
$scope module s $end
$var wire 8 ^ in [0:7] $end
$var reg 8 _ out [0:7] $end
$upscope $end
$upscope $end
$scope begin genblk1[31] $end
$var parameter 6 ` i $end
$scope module s $end
$var wire 8 a in [0:7] $end
$var reg 8 b out [0:7] $end
$upscope $end
$upscope $end
$upscope $end
$scope module s2 $end
$var wire 32 c in [0:31] $end
$var wire 32 d out [0:31] $end
$scope begin genblk1[7] $end
$var parameter 4 e i $end
$scope module s $end
$var wire 8 f in [0:7] $end
$var reg 8 g out [0:7] $end
$upscope $end
$upscope $end
$scope begin genblk1[15] $end
$var parameter 5 h i $end
$scope module s $end
$var wire 8 i in [0:7] $end
$var reg 8 j out [0:7] $end
$upscope $end
$upscope $end
$scope begin genblk1[23] $end
$var parameter 6 k i $end
$scope module s $end
$var wire 8 l in [0:7] $end
$var reg 8 m out [0:7] $end
$upscope $end
$upscope $end
$scope begin genblk1[31] $end
$var parameter 6 n i $end
$scope module s $end
$var wire 8 o in [0:7] $end
$var reg 8 p out [0:7] $end
$upscope $end
$upscope $end
$upscope $end
$scope module s3 $end
$var wire 32 q in [0:31] $end
$var wire 32 r out [0:31] $end
$scope begin genblk1[7] $end
$var parameter 4 s i $end
$scope module s $end
$var wire 8 t in [0:7] $end
$var reg 8 u out [0:7] $end
$upscope $end
$upscope $end
$scope begin genblk1[15] $end
$var parameter 5 v i $end
$scope module s $end
$var wire 8 w in [0:7] $end
$var reg 8 x out [0:7] $end
$upscope $end
$upscope $end
$scope begin genblk1[23] $end
$var parameter 6 y i $end
$scope module s $end
$var wire 8 z in [0:7] $end
$var reg 8 { out [0:7] $end
$upscope $end
$upscope $end
$scope begin genblk1[31] $end
$var parameter 6 | i $end
$scope module s $end
$var wire 8 } in [0:7] $end
$var reg 8 ~ out [0:7] $end
$upscope $end
$upscope $end
$upscope $end
$upscope $end
$scope module keyAdd_inst $end
$var wire 128 !" in [0:127] $end
$var wire 128 "" key [0:127] $end
$var wire 1 > keyAddEn $end
$var wire 1 & reset $end
$var reg 128 #" keyAddOut [0:127] $end
$upscope $end
$scope module mixCol_inst $end
$var wire 128 $" in [0:127] $end
$var wire 1 A mixEn $end
$var wire 1 & reset $end
$var wire 4 %" round [3:0] $end
$var reg 128 &" mixColOut [0:127] $end
$scope function mulThree $end
$var reg 8 '" x [7:0] $end
$upscope $end
$scope function mulTwo $end
$var reg 8 (" x [7:0] $end
$upscope $end
$scope begin name $end
$var integer 32 )" i [31:0] $end
$upscope $end
$upscope $end
$scope module shiftRows_inst $end
$var wire 128 *" in [0:127] $end
$var wire 1 & reset $end
$var wire 1 B shiftEn $end
$var reg 128 +" shiftRowsOut [0:127] $end
$upscope $end
$upscope $end
$scope module keyExpansion_inst $end
$var wire 128 ," currentKey [0:127] $end
$var wire 1 / expanEn $end
$var wire 1 & reset $end
$var wire 4 -" round [0:3] $end
$var wire 32 ." sub_circ [0:31] $end
$var wire 4 /" round_corr [0:3] $end
$var wire 32 0" rc [0:31] $end
$var wire 32 1" circ [0:31] $end
$var reg 128 2" keyExpansionOut [0:127] $end
$scope module bs $end
$var wire 32 3" in [0:31] $end
$var wire 32 4" out [0:31] $end
$scope begin genblk1[7] $end
$var parameter 4 5" i $end
$scope module s $end
$var wire 8 6" in [0:7] $end
$var reg 8 7" out [0:7] $end
$upscope $end
$upscope $end
$scope begin genblk1[15] $end
$var parameter 5 8" i $end
$scope module s $end
$var wire 8 9" in [0:7] $end
$var reg 8 :" out [0:7] $end
$upscope $end
$upscope $end
$scope begin genblk1[23] $end
$var parameter 6 ;" i $end
$scope module s $end
$var wire 8 <" in [0:7] $end
$var reg 8 =" out [0:7] $end
$upscope $end
$upscope $end
$scope begin genblk1[31] $end
$var parameter 6 >" i $end
$scope module s $end
$var wire 8 ?" in [0:7] $end
$var reg 8 @" out [0:7] $end
$upscope $end
$upscope $end
$upscope $end
$scope module rcoeff $end
$var wire 4 A" r [3:0] $end
$var reg 32 B" cf [0:31] $end
$upscope $end
$upscope $end
$upscope $end
$upscope $end
$enddefinitions $end
$comment Show the parameter values. $end
$dumpall
b11111 >"
b10111 ;"
b1111 8"
b111 5"
b11111 |
b10111 y
b1111 v
b111 s
b11111 n
b10111 k
b1111 h
b111 e
b11111 `
b10111 ]
b1111 Z
b111 W
b11111 R
b10111 O
b1111 L
b111 I
$end
#0
$dumpvars
bx B"
bx A"
bx @"
bx ?"
bx ="
bx <"
bx :"
bx 9"
bx 7"
bx 6"
bx 4"
bx 3"
bx 2"
bx 1"
bx 0"
bx /"
bx ."
bx -"
bx ,"
bx +"
bx *"
bx )"
bx ("
bx '"
bx &"
bx %"
bx $"
bx #"
bx ""
bx !"
bx ~
bx }
bx {
bx z
bx x
bx w
bx u
bx t
bx r
bx q
bx p
bx o
bx m
bx l
bx j
bx i
bx g
bx f
bx d
bx c
bx b
bx a
bx _
bx ^
bx \
bx [
bx Y
bx X
bx V
bx U
bx T
bx S
bx Q
bx P
bx N
bx M
bx K
bx J
bx H
bx G
bx F
bx E
bx D
bx C
0B
0A
bx @
bx ?
0>
bx =
0<
bx ;
bx :
bx 9
bx 8
bx 7
bx 6
bx 5
bx 4
bx 3
bx 2
bx 1
bx 0
0/
bx .
bx -
bx ,
bx +
bx *
bx )
bx (
0'
0&
bx %
0$
bx #
bx "
bx !
$end
#5000
b1100011 ="
b1100011 :"
b1100011 7"
b1100011011000110110001101100011 ."
b1100011011000110110001101100011 4"
b1100011 @"
b0 <"
b0 9"
b0 6"
b0 ?"
b0 1"
b0 3"
b1000000000000000000000000 0"
b1000000000000000000000000 B"
b0 +
b0 ;
b0 "
b0 -
b0 ,
b0 ,"
b0 2
b0 5
b0 .
b0 3
b1 /"
b1 A"
b0 !
b0 1
b0 4
b0 %"
b0 -"
1'
1$
#6000
b110010010000111111011010101000100010000101101000110000100011010011000100110001100110001010001011100000001101110000011100110100 %
b110010010000111111011010101000100010000101101000110000100011010011000100110001100110001010001011100000001101110000011100110100 (
#7000
b11101011 ="
b10000100 :"
b10001010 7"
b10001010100001001110101100000001 ."
b10001010100001001110101100000001 4"
b1 @"
b111100 <"
b1001111 9"
b11001111 6"
b1001 ?"
b1001001000111010111011001110101011000011011001110100100110100111100101001000100101100010101101111000011100010111111111001100111 *
b1001001000111010111011001110101011000011011001110100100110100111100101001000100101100010101101111000011100010111111111001100111 2"
b11001111010011110011110000001001 1"
b11001111010011110011110000001001 3"
1/
b101011011111100001010100010110001010001010111011010010101001101010101111110111000101011000100000001001110011110100111100111100 ,
b101011011111100001010100010110001010001010111011010010101001101010101111110111000101011000100000001001110011110100111100111100 ,"
b101011011111100001010100010110001010001010111011010010101001101010101111110111000101011000100000001001110011110100111100111100 #
b101011011111100001010100010110001010001010111011010010101001101010101111110111000101011000100000001001110011110100111100111100 )
#8000
0'
#10000
b1001001000111010111011001110101011000011011001110100100110100111100101001000100101100010101101111000011100010111111111001100111 0
0$
#15000
b100011001101000000111100101111000001100101100011001100110100100100011111000110100110111101000101000000001100010011001001100 8
b100011001101000000111100101111000001100101100011001100110100100100011111000110100110111101000101000000001100010011001001100 #"
b100011001101000000111100101111000001100101100011001100110100100100011111000110100110111101000101000000001100010011001001100 =
b100011001101000000111100101111000001100101100011001100110100100100011111000110100110111101000101000000001100010011001001100 !"
b100011001101000000111100101111000001100101100011001100110100100100011111000110100110111101000101000000001100010011001001100 7
b100011001101000000111100101111000001100101100011001100110100100100011111000110100110111101000101000000001100010011001001100 &"
b11110 '"
b11100101 ("
b11010100101111110101110100110000111000001011010001010010101011101011100001000001000100011111000100011110001001111001100011100101 @
b11010100101111110101110100110000111000001011010001010010101011101011100001000001000100011111000100011110001001111001100011100101 $"
b11010100101111110101110100110000111000001011010001010010101011101011100001000001000100011111000100011110001001111001100011100101 6
b11010100101111110101110100110000111000001011010001010010101011101011100001000001000100011111000100011110001001111001100011100101 +"
b11010100001001110001000110101110111000001011111110011000111100011011100010110100010111011110010100011110010000010101001000110000 C
b11010100001001110001000110101110111000001011111110011000111100011011100010110100010111011110010100011110010000010101001000110000 *"
b11010100001001110001000110101110111000001011111110011000111100011011100010110100010111011110010100011110010000010101001000110000 9
b11010100001001110001000110101110111000001011111110011000111100011011100010110100010111011110010100011110010000010101001000110000 F
b110000 T
b1010010 Q
b1000001 N
b11110010000010101001000110000 H
b11110 K
b11100101 b
b1011101 _
b10110100 \
b10111000101101000101110111100101 V
b10111000 Y
b11110001 p
b10011000 m
b10111111 j
b11100000101111111001100011110001 d
b11100000 g
b10101110 ~
b10001 {
b100111 x
b11010100001001110001000110101110111000001011111110011000111100011011100010110100010111011110010100011110010000010101001000110000 E
b11010100001001110001000110101110 r
b11010100 u
b1000 S
b1001000 P
b11111000 M
b11101001 J
b101010 a
b10001101 ^
b11000110 [
b10011010 X
b101011 o
b11100010 l
b11110100 i
b10100000 f
b10111110 }
b11100011 z
b111101 w
b11001 t
b11101001111110000100100000001000 G
b10011010110001101000110100101010 U
b10100000111101001110001000101011 c
b11001001111011110001110111110 q
b100 )"
b10000000000000000000000000 0"
b10000000000000000000000000 B"
b100011001101000000111100101111000001100101100011001100110100100100011111000110100110111101000101000000001100010011001001100 +
b100011001101000000111100101111000001100101100011001100110100100100011111000110100110111101000101000000001100010011001001100 ;
b0 ?
b0 ""
1>
1A
1B
b11001001111011110001110111110101000001111010011100010001010111001101011000110100011010010101011101001111110000100100000001000 :
b11001001111011110001110111110101000001111010011100010001010111001101011000110100011010010101011101001111110000100100000001000 D
1<
b10 /"
b10 A"
b1 !
b1 1
b1 4
b1 %"
b1 -"
b11001001111011110001110111110101000001111010011100010001010111001101011000110100011010010101011101001111110000100100000001000 .
b11001001111011110001110111110101000001111010011100010001010111001101011000110100011010010101011101001111110000100100000001000 3
1$
#20000
0$
#25000
b10010001010011110101101000100110001101001011100000100101001001111010000100100000111101101111111000110011111011111100000100010100 8
b10010001010011110101101000100110001101001011100000100101001001111010000100100000111101101111111000110011111011111100000100010100 #"
b10010001010011110101101000100110001101001011100000100101001001111010000100100000111101101111111000110011111011111100000100010100 =
b10010001010011110101101000100110001101001011100000100101001001111010000100100000111101101111111000110011111011111100000100010100 !"
b10010001010011110101101000100110001101001011100000100101001001111010000100100000111101101111111000110011111011111100000100010100 7
b10010001010011110101101000100110001101001011100000100101001001111010000100100000111101101111111000110011111011111100000100010100 &"
b11110010000111110110011000101001111000010100000111110111110110010101001001101111000011001011100000110100001100111101010011011010 @
b11110010000111110110011000101001111000010100000111110111110110010101001001101111000011001011100000110100001100111101010011011010 $"
b11110010000111110110011000101001111000010100000111110111110110010101001001101111000011001011100000110100001100111101010011011010 6
b11110010000111110110011000101001111000010100000111110111110110010101001001101111000011001011100000110100001100111101010011011010 +"
b11110010001100110000110011011001111000010001111111010100101110000101001001000001011001101101101000110100011011111111011100101001 C
b11110010001100110000110011011001111000010001111111010100101110000101001001000001011001101101101000110100011011111111011100101001 *"
b11110010001100110000110011011001111000010001111111010100101110000101001001000001011001101101101000110100011011111111011100101001 9
b11110010001100110000110011011001111000010001111111010100101110000101001001000001011001101101101000110100011011111111011100101001 F
b101001 T
b11110111 Q
b1101111 N
b110100011011111111011100101001 H
b110100 K
b11011010 b
b1100110 _
b1000001 \
b1010010010000010110011011011010 V
b1010010 Y
b10111000 p
b11010100 m
b11111 j
b11100001000111111101010010111000 d
b11100001 g
b11011001 ~
b1100 {
b110011 x
b11110010001100110000110011011001111000010001111111010100101110000101001001000001011001101101101000110100011011111111011100101001 E
b11110010001100110000110011011001 r
b11110010 u
b10000101 ="
b10111011 :"
b111101 7"
b111101101110111000010100101110 ."
b111101101110111000010100101110 4"
b101110 @"
b1001100 S
b100110 P
b110 M
b101000 J
b1111010 a
b11010011 ^
b11111000 [
b1001000 X
b10011010 o
b11001 l
b11001011 i
b11100000 f
b11100101 }
b10000001 z
b1100110 w
b100 t
b1100111 <"
b11111110 9"
b10001011 6"
b11000011 ?"
b101000000001100010011001001100 G
b1001000111110001101001101111010 U
b11100000110010110001100110011010 c
b100011001101000000111100101 q
b110100 '"
b11011010 ("
b100 )"
b100000000000000000000000000 0"
b100000000000000000000000000 B"
b11000001100110011001110101110100101000000010101000111001101001110110101001101110100010001111110010101001111001010111011010011011 *
b11000001100110011001110101110100101000000010101000111001101001110110101001101110100010001111110010101001111001010111011010011011 2"
b10001011111111100110011111000011 1"
b10001011111111100110011111000011 3"
b100011001101000000111100101111000001100101100011001100110100100100011111000110100110111101000101000000001100010011001001100 :
b100011001101000000111100101111000001100101100011001100110100100100011111000110100110111101000101000000001100010011001001100 D
b10010001010011110101101000100110001101001011100000100101001001111010000100100000111101101111111000110011111011111100000100010100 +
b10010001010011110101101000100110001101001011100000100101001001111010000100100000111101101111111000110011111011111100000100010100 ;
1A
1B
1<
1>
b11 /"
b11 A"
b10 !
b10 1
b10 4
b10 %"
b10 -"
b1001001000111010111011001110101011000011011001110100100110100111100101001000100101100010101101111000011100010111111111001100111 ,
b1001001000111010111011001110101011000011011001110100100110100111100101001000100101100010101101111000011100010111111111001100111 ,"
b100011001101000000111100101111000001100101100011001100110100100100011111000110100110111101000101000000001100010011001001100 .
b100011001101000000111100101111000001100101100011001100110100100100011111000110100110111101000101000000001100010011001001100 3
1$
#30000
b11000001100110011001110101110100101000000010101000111001101001110110101001101110100010001111110010101001111001010111011010011011 0
0$
#35000
b10101011001010111110001011001011111010001001001011101000100100110110010000010110001011011010010001110001010101110111110001000 8
b10101011001010111110001011001011111010001001001011101000100100110110010000010110001011011010010001110001010101110111110001000 #"
b10101011001010111110001011001011111010001001001011101000100100110110010000010110001011011010010001110001010101110111110001000 =
b10101011001010111110001011001011111010001001001011101000100100110110010000010110001011011010010001110001010101110111110001000 !"
b10101011001010111110001011001011111010001001001011101000100100110110010000010110001011011010010001110001010101110111110001000 7
b10101011001010111110001011001011111010001001001011101000100100110110010000010110001011011010010001110001010101110111110001000 &"
b10000001011011000100001011111010000110001011011101111000111101110011001011011111101111101100110011000011100001000011111110111011 @
b10000001011011000100001011111010000110001011011101111000111101110011001011011111101111101100110011000011100001000011111110111011 $"
b10000001011011000100001011111010000110001011011101111000111101110011001011011111101111101100110011000011100001000011111110111011 6
b10000001011011000100001011111010000110001011011101111000111101110011001011011111101111101100110011000011100001000011111110111011 +"
b10000001100001001011111011110111000110000110110000111111110011000011001010110111010000101011101111000011110111110111100011111010 C
b10000001100001001011111011110111000110000110110000111111110011000011001010110111010000101011101111000011110111110111100011111010 *"
b10000001100001001011111011110111000110000110110000111111110011000011001010110111010000101011101111000011110111110111100011111010 9
b10000001100001001011111011110111000110000110110000111111110011000011001010110111010000101011101111000011110111110111100011111010 F
b11111010 T
b1111000 Q
b11011111 N
b11000011110111110111100011111010 H
b11000011 K
b10111011 b
b1000010 _
b10110111 \
b110010101101110100001010111011 V
b110010 Y
b11001100 p
b111111 m
b1101100 j
b11000011011000011111111001100 d
b11000 g
b11110111 ~
b10111110 {
b10000100 x
b10000001100001001011111011110111000110000110110000111111110011000011001010110111010000101011101111000011110111110111100011111010 E
b10000001100001001011111011110111 r
b10000001 u
b10100 ="
b111000 :"
b11011001 7"
b11011001001110000001010011010011 ."
b11011001001110000001010011010011 4"
b11010011 @"
b10100 S
b11000001 P
b11101111 M
b110011 J
b11111110 a
b11110110 ^
b100000 [
b10100001 X
b100111 o
b100101 l
b10111000 i
b110100 f
b100110 }
b1011010 z
b1001111 w
b10010001 t
b10011011 <"
b1110110 9"
b11100101 6"
b10101001 ?"
b110011111011111100000100010100 G
b10100001001000001111011011111110 U
b110100101110000010010100100111 c
b10010001010011110101101000100110 q
b11000011 '"
b10111011 ("
b100 )"
b1000000000000000000000000000 0"
b1000000000000000000000000000 B"
b11111000001000100001100001011010010110000000100000100001111111010011001001100110101010010000000110011011100000111101111110011010 *
b11111000001000100001100001011010010110000000100000100001111111010011001001100110101010010000000110011011100000111101111110011010 2"
b11100101011101101001101110101001 1"
b11100101011101101001101110101001 3"
b10010001010011110101101000100110001101001011100000100101001001111010000100100000111101101111111000110011111011111100000100010100 :
b10010001010011110101101000100110001101001011100000100101001001111010000100100000111101101111111000110011111011111100000100010100 D
b10101011001010111110001011001011111010001001001011101000100100110110010000010110001011011010010001110001010101110111110001000 +
b10101011001010111110001011001011111010001001001011101000100100110110010000010110001011011010010001110001010101110111110001000 ;
1A
1B
1<
1>
b100 /"
b100 A"
b11 !
b11 1
b11 4
b11 %"
b11 -"
b11000001100110011001110101110100101000000010101000111001101001110110101001101110100010001111110010101001111001010111011010011011 ,
b11000001100110011001110101110100101000000010101000111001101001110110101001101110100010001111110010101001111001010111011010011011 ,"
b10010001010011110101101000100110001101001011100000100101001001111010000100100000111101101111111000110011111011111100000100010100 .
b10010001010011110101101000100110001101001011100000100101001001111010000100100000111101101111111000110011111011111100000100010100 3
1$
#40000
b11111000001000100001100001011010010110000000100000100001111111010011001001100110101010010000000110011011100000111101111110011010 0
0$
#45000
b10010000111001011001000000010111110001000110100000001111010110110100110101111000110101011000110000100100110110100100000000101011 8
b10010000111001011001000000010111110001000110100000001111010110110100110101111000110101011000110000100100110110100100000000101011 #"
b10010000111001011001000000010111110001000110100000001111010110110100110101111000110101011000110000100100110110100100000000101011 =
b10010000111001011001000000010111110001000110100000001111010110110100110101111000110101011000110000100100110110100100000000101011 !"
b10010000111001011001000000010111110001000110100000001111010110110100110101111000110101011000110000100100110110100100000000101011 7
b10010000111001011001000000010111110001000110100000001111010110110100110101111000110101011000110000100100110110100100000000101011 &"
b1011001110010011010011011000100111111110001001111011111110010110101000011100101000100001100100100011001010011010100110010001101 @
b1011001110010011010011011000100111111110001001111011111110010110101000011100101000100001100100100011001010011010100110010001101 $"
b1011001110010011010011011000100111111110001001111011111110010110101000011100101000100001100100100011001010011010100110010001101 6
b1011001110010011010011011000100111111110001001111011111110010110101000011100101000100001100100100011001010011010100110010001101 +"
b1011001010011010001000011001011111111111100100101001100110010010101000000010011101001101000110100011001111001011101111111000100 C
b1011001010011010001000011001011111111111100100101001100110010010101000000010011101001101000110100011001111001011101111111000100 *"
b1011001010011010001000011001011111111111100100101001100110010010101000000010011101001101000110100011001111001011101111111000100 9
b1011001010011010001000011001011111111111100100101001100110010010101000000010011101001101000110100011001111001011101111111000100 F
b11000100 T
b11011111 Q
b11100101 N
b11001111001011101111111000100 H
b11001 K
b10001101 b
b10100110 _
b10011 \
b1010000000100111010011010001101 V
b1010000 Y
b11001001 p
b1001100 m
b11001001 j
b11111111110010010100110011001001 d
b11111111 g
b11001011 ~
b10000 {
b1001101 x
b1011001010011010001000011001011111111111100100101001100110010010101000000010011101001101000110100011001111001011101111111000100 E
b1011001010011010001000011001011 r
b1011001 u
b10111000 ="
b10011110 :"
b11101100 7"
b11101100100111101011100000010100 ."
b11101100100111101011100000010100 4"
b10100 @"
b10001000 S
b11101111 P
b101010 M
b10001110 J
b10110100 a
b11000101 ^
b10000010 [
b1101100 X
b10010 o
b1011101 l
b10010 i
b1111101 f
b1011001 }
b1111100 z
b1100101 w
b10101 t
b10011010 <"
b11011111 9"
b10000011 6"
b10011011 ?"
b10001110001010101110111110001000 G
b1101100100000101100010110110100 U
b1111101000100100101110100010010 c
b10101011001010111110001011001 q
b11001 '"
b10001101 ("
b100 )"
b10000000000000000000000000000 0"
b10000000000000000000000000000 B"
b101001000110100000110010001001011100010001001000101101011101000100001101110100100001000111010111011000111101110101101111101111 *
b101001000110100000110010001001011100010001001000101101011101000100001101110100100001000111010111011000111101110101101111101111 2"
b10000011110111111001101010011011 1"
b10000011110111111001101010011011 3"
b10101011001010111110001011001011111010001001001011101000100100110110010000010110001011011010010001110001010101110111110001000 :
b10101011001010111110001011001011111010001001001011101000100100110110010000010110001011011010010001110001010101110111110001000 D
b10010000111001011001000000010111110001000110100000001111010110110100110101111000110101011000110000100100110110100100000000101011 +
b10010000111001011001000000010111110001000110100000001111010110110100110101111000110101011000110000100100110110100100000000101011 ;
1A
1B
1<
1>
b101 /"
b101 A"
b100 !
b100 1
b100 4
b100 %"
b100 -"
b11111000001000100001100001011010010110000000100000100001111111010011001001100110101010010000000110011011100000111101111110011010 ,
b11111000001000100001100001011010010110000000100000100001111111010011001001100110101010010000000110011011100000111101111110011010 ,"
b10101011001010111110001011001011111010001001001011101000100100110110010000010110001011011010010001110001010101110111110001000 .
b10101011001010111110001011001011111010001001001011101000100100110110010000010110001011011010010001110001010101110111110001000 3
1$
#50000
b101001000110100000110010001001011100010001001000101101011101000100001101110100100001000111010111011000111101110101101111101111 0
0$
#55000
b11111101000111100010101100011111000111101001010010111001011010100111110111010100001111110111101100001110011000011010111100111101 8
b11111101000111100010101100011111000111101001010010111001011010100111110111010100001111110111101100001110011000011010111100111101 #"
b11111101000111100010101100011111000111101001010010111001011010100111110111010100001111110111101100001110011000011010111100111101 =
b11111101000111100010101100011111000111101001010010111001011010100111110111010100001111110111101100001110011000011010111100111101 !"
b11111101000111100010101100011111000111101001010010111001011010100111110111010100001111110111101100001110011000011010111100111101 7
b11111101000111100010101100011111000111101001010010111001011010100111110111010100001111110111101100001110011000011010111100111101 &"
b1100000010001010000001111110001000111001011110000001001111100001110001101010111011000000011100100110110110110010111011001100100 @
b1100000010001010000001111110001000111001011110000001001111100001110001101010111011000000011100100110110110110010111011001100100 $"
b1100000010001010000001111110001000111001011110000001001111100001110001101010111011000000011100100110110110110010111011001100100 6
b1100000010001010000001111110001000111001011110000001001111100001110001101010111011000000011100100110110110110010111011001100100 +"
b1100000110110010110000011110000000111000100010101110110001110011110001110111100000000110110010000110110010101110000100111110001 C
b1100000110110010110000011110000000111000100010101110110001110011110001110111100000000110110010000110110010101110000100111110001 *"
b1100000110110010110000011110000000111000100010101110110001110011110001110111100000000110110010000110110010101110000100111110001 9
b1100000110110010110000011110000000111000100010101110110001110011110001110111100000000110110010000110110010101110000100111110001 F
b11110001 T
b1001 Q
b1010111 N
b110110010101110000100111110001 H
b110110 K
b1100100 b
b11 _
b10111100 \
b11100011101111000000001101100100 V
b11100011 Y
b111001 p
b1110110 m
b1000101 j
b11100010001010111011000111001 d
b11100 g
b11110000 ~
b1100000 {
b11011001 x
b1100000110110010110000011110000000111000100010101110110001110011110001110111100000000110110010000110110010101110000100111110001 E
b1100000110110010110000011110000 r
b1100000 u
b11011111 ="
b111001 :"
b1101000 7"
b1101000001110011101111101100001 ."
b1101000001110011101111101100001 4"
b1100001 @"
b101011 S
b1000000 P
b11011010 M
b100100 J
b10001100 a
b11010101 ^
b1111000 [
b1001101 X
b1011011 o
b1111 l
b1101000 i
b11000100 f
b10111 }
b10010000 z
b11100101 w
b10010000 t
b11101111 <"
b1011011 9"
b11110111 6"
b11011000 ?"
b100100110110100100000000101011 G
b1001101011110001101010110001100 U
b11000100011010000000111101011011 c
b10010000111001011001000000010111 q
b110110 '"
b1100100 ("
b100 )"
b100000000000000000000000000000 0"
b100000000000000000000000000000 B"
b11010101100001001011010010011101101001001001011010011001111010011110011111100010000111011001110000111111000101010100011001110011 *
b11010101100001001011010010011101101001001001011010011001111010011110011111100010000111011001110000111111000101010100011001110011 2"
b11110111010110111110111111011000 1"
b11110111010110111110111111011000 3"
b10010000111001011001000000010111110001000110100000001111010110110100110101111000110101011000110000100100110110100100000000101011 :
b10010000111001011001000000010111110001000110100000001111010110110100110101111000110101011000110000100100110110100100000000101011 D
b11111101000111100010101100011111000111101001010010111001011010100111110111010100001111110111101100001110011000011010111100111101 +
b11111101000111100010101100011111000111101001010010111001011010100111110111010100001111110111101100001110011000011010111100111101 ;
1A
1B
1<
1>
b110 /"
b110 A"
b101 !
b101 1
b101 4
b101 %"
b101 -"
b101001000110100000110010001001011100010001001000101101011101000100001101110100100001000111010111011000111101110101101111101111 ,
b101001000110100000110010001001011100010001001000101101011101000100001101110100100001000111010111011000111101110101101111101111 ,"
b10010000111001011001000000010111110001000110100000001111010110110100110101111000110101011000110000100100110110100100000000101011 .
b10010000111001011001000000010111110001000110100000001111010110110100110101111000110101011000110000100100110110100100000000101011 3
1$
#60000
b11010101100001001011010010011101101001001001011010011001111010011110011111100010000111011001110000111111000101010100011001110011 0
0$
