key_tb.vcd
$date
	Sun Dec 08 21:57:11 2024
$end
$version
	Icarus Verilog
$end
$timescale
	1ps
$end
$scope module key_tb $end
$var wire 128 ! roundKey [0:127] $end
$var reg 1 " clk $end
$var reg 1 # expanEn $end
$var reg 128 $ inputKey [0:127] $end
$var reg 1 % reset $end
$var reg 4 & round [0:3] $end
$scope module keyExpan_inst $end
$var wire 1 " clk $end
$var wire 1 # expanEn $end
$var wire 128 ' inputKey [0:127] $end
$var wire 1 % reset $end
$var wire 4 ( round [0:3] $end
$var wire 32 ) sub_circ [0:31] $end
$var wire 32 * rc [0:31] $end
$var wire 32 + circ [0:31] $end
$var reg 128 , currentKey [0:127] $end
$var reg 4 - i [0:3] $end
$var reg 128 . newKey [0:127] $end
$var reg 128 / roundKey [0:127] $end
$scope module bs $end
$var wire 32 0 in [0:31] $end
$var wire 32 1 out [0:31] $end
$scope begin genblk1[7] $end
$var parameter 4 2 i $end
$scope module s $end
$var wire 8 3 in [0:7] $end
$var reg 8 4 out [0:7] $end
$upscope $end
$upscope $end
$scope begin genblk1[15] $end
$var parameter 5 5 i $end
$scope module s $end
$var wire 8 6 in [0:7] $end
$var reg 8 7 out [0:7] $end
$upscope $end
$upscope $end
$scope begin genblk1[23] $end
$var parameter 6 8 i $end
$scope module s $end
$var wire 8 9 in [0:7] $end
$var reg 8 : out [0:7] $end
$upscope $end
$upscope $end
$scope begin genblk1[31] $end
$var parameter 6 ; i $end
$scope module s $end
$var wire 8 < in [0:7] $end
$var reg 8 = out [0:7] $end
$upscope $end
$upscope $end
$upscope $end
$scope module rcoeff $end
$var wire 4 > r [0:3] $end
$var reg 32 ? cf [0:31] $end
$upscope $end
$upscope $end
$upscope $end
$enddefinitions $end
$comment Show the parameter values. $end
$dumpall
b11111 ;
b10111 8
b1111 5
b111 2
$end
#0
$dumpvars
b1000000000000000000000000 ?
b1 >
bx =
bx <
bx :
bx 9
bx 7
bx 6
bx 4
bx 3
bx 1
bx 0
bx /
bx .
b1 -
bx ,
bx +
b1000000000000000000000000 *
bx )
bx (
bx '
bx &
1%
bx $
0#
1"
bx !
$end
#4000
b11101011 :
b10000100 7
b10001010 4
b10001010100001001110101100000001 )
b10001010100001001110101100000001 1
b1 =
b111100 9
b1001111 6
b11001111 3
b1001 <
b11001111010011110011110000001001 +
b11001111010011110011110000001001 0
b101011011111100001010100010110001010001010111011010010101001101010101111110111000101011000100000001001110011110100111100111100 ,
b101011011111100001010100010110001010001010111011010010101001101010101111110111000101011000100000001001110011110100111100111100 !
b101011011111100001010100010110001010001010111011010010101001101010101111110111000101011000100000001001110011110100111100111100 /
1#
b101011011111100001010100010110001010001010111011010010101001101010101111110111000101011000100000001001110011110100111100111100 $
b101011011111100001010100010110001010001010111011010010101001101010101111110111000101011000100000001001110011110100111100111100 '
0%
#5000
0"
#10000
1"
b0 &
b0 (
#15000
b10000000000000000000000000 *
b10000000000000000000000000 ?
b10 -
b10 >
b1101011 :
b111000 7
b1010000 4
b1010000001110000110101111100101 )
b1010000001110000110101111100101 1
b11100101 =
b101 9
b1110110 6
b1101100 3
b101010 <
b1101100011101100000010100101010 +
b1101100011101100000010100101010 0
b10100000111110101111111000010111100010000101010000101100101100010010001110100011001110010011100100101010011011000111011000000101 ,
b10100000111110101111111000010111100010000101010000101100101100010010001110100011001110010011100100101010011011000111011000000101 .
0"
#20000
b10100000111110101111111000010111100010000101010000101100101100010010001110100011001110010011100100101010011011000111011000000101 !
b10100000111110101111111000010111100010000101010000101100101100010010001110100011001110010011100100101010011011000111011000000101 /
1"
b1 &
b1 (
#25000
b100000000000000000000000000 *
b100000000000000000000000000 ?
b11 -
b11 >
b11010010 :
b1000010 7
b11001011 4
b11001011010000101101001010001111 )
b11001011010000101101001010001111 1
b10001111 =
b1111111 9
b11110110 6
b1011001 3
b1110011 <
b1011001111101100111111101110011 +
b1011001111101100111111101110011 0
b11110010110000101001010111110010011110101001011010111001010000110101100100110101100000000111101001110011010110011111011001111111 ,
b11110010110000101001010111110010011110101001011010111001010000110101100100110101100000000111101001110011010110011111011001111111 .
0"
#30000
b11110010110000101001010111110010011110101001011010111001010000110101100100110101100000000111101001110011010110011111011001111111 !
b11110010110000101001010111110010011110101001011010111001010000110101100100110101100000000111101001110011010110011111011001111111 /
1"
b10 &
b10 (
#35000
b1000000000000000000000000000 *
b1000000000000000000000000000 ?
b100 -
b100 >
b11100010 :
b11000100 7
b11011010 4
b11011010110001001110001000111100 )
b11011010110001001110001000111100 1
b111100 =
b111011 9
b10001000 6
b1111010 3
b1101101 <
b1111010100010000011101101101101 +
b1111010100010000011101101101101 0
b111101100000000100011101111101010001110001011011111110001111100001111000100011011111100100010001101101011110101000100000111011 ,
b111101100000000100011101111101010001110001011011111110001111100001111000100011011111100100010001101101011110101000100000111011 .
0"
#40000
b111101100000000100011101111101010001110001011011111110001111100001111000100011011111100100010001101101011110101000100000111011 !
b111101100000000100011101111101010001110001011011111110001111100001111000100011011111100100010001101101011110101000100000111011 /
1"
b11 &
b11 (
#45000
b10000000000000000000000000000 *
b10000000000000000000000000000 ?
b101 -
b101 >
b1100011 :
b10010101 7
b101011 4
b101011100101010110001110111001 )
b101011100101010110001110111001 1
b10111001 =
b0 9
b10101101 6
b1011 3
b11011011 <
b1011101011010000000011011011 +
b1011101011010000000011011011 0
b11101111010001001010010101000001101010000101001001011011011111111011011001110001001001010011101111011011000010111010110100000000 ,
b11101111010001001010010101000001101010000101001001011011011111111011011001110001001001010011101111011011000010111010110100000000 .
0"
#50000
1"
0#
