keytb.vcd
$date
	Fri Dec 27 16:18:26 2024
$end
$version
	Icarus Verilog
$end
$timescale
	1ps
$end
$scope module keytb $end
$var wire 1408 ! key_reg [1407:0] $end
$var parameter 32 " EXPANDED_KEY_WIDTH $end
$var parameter 32 # KEY_WIDTH $end
$var reg 1 $ clk $end
$var reg 1 % en $end
$var reg 128 & initial_key [127:0] $end
$var reg 1 ' reset_n $end
$var integer 32 ( i [31:0] $end
$scope module uut $end
$var wire 1 $ clk $end
$var wire 1 % en $end
$var wire 128 ) initial_key [127:0] $end
$var wire 1 ' reset_n $end
$var wire 32 * roundCfOut [31:0] $end
$var wire 32 + byteSubOut [31:0] $end
$var parameter 2 , CTRL_IDLE $end
$var parameter 2 - CTRL_INIT $end
$var parameter 2 . CTRL_MAIN $end
$var parameter 32 / num_rounds $end
$var reg 32 0 byteSubIn [31:0] $end
$var reg 1408 1 key_reg [1407:0] $end
$var reg 128 2 old_round_key [127:0] $end
$var reg 128 3 old_round_key_new [127:0] $end
$var reg 1 4 old_round_key_we $end
$var reg 2 5 round_ctrl_new [1:0] $end
$var reg 2 6 round_ctrl_reg [1:0] $end
$var reg 1 7 round_ctrl_we $end
$var reg 128 8 round_key_new [127:0] $end
$var reg 128 9 round_key_reg [127:0] $end
$var reg 1 : round_key_we $end
$var reg 1 ; round_nm_inc $end
$var reg 4 < round_nm_new [3:0] $end
$var reg 4 = round_nm_reg [3:0] $end
$var reg 1 > round_nm_rst $end
$var reg 1 ? round_nm_we $end
$scope module bs_inst $end
$var wire 32 @ in [31:0] $end
$var wire 32 A out [31:0] $end
$scope begin genblk1[0] $end
$var parameter 2 B i $end
$scope module sbox_inst $end
$var wire 8 C in [7:0] $end
$var reg 8 D out [7:0] $end
$upscope $end
$upscope $end
$scope begin genblk1[1] $end
$var parameter 2 E i $end
$scope module sbox_inst $end
$var wire 8 F in [7:0] $end
$var reg 8 G out [7:0] $end
$upscope $end
$upscope $end
$scope begin genblk1[2] $end
$var parameter 3 H i $end
$scope module sbox_inst $end
$var wire 8 I in [7:0] $end
$var reg 8 J out [7:0] $end
$upscope $end
$upscope $end
$scope begin genblk1[3] $end
$var parameter 3 K i $end
$scope module sbox_inst $end
$var wire 8 L in [7:0] $end
$var reg 8 M out [7:0] $end
$upscope $end
$upscope $end
$upscope $end
$scope module rcf_inst $end
$var wire 4 N r [3:0] $end
$var reg 32 O cf [31:0] $end
$upscope $end
$scope begin round_control $end
$var reg 32 P circ [31:0] $end
$var reg 32 Q circSub [31:0] $end
$var reg 32 R xored [31:0] $end
$upscope $end
$upscope $end
$scope task monitor_keys $end
$upscope $end
$scope task reset_dut $end
$upscope $end
$scope task start_key_expansion $end
$var reg 128 S key [127:0] $end
$upscope $end
$upscope $end
$enddefinitions $end
$comment Show the parameter values. $end
$dumpall
b11 K
b10 H
b1 E
b0 B
b1010 /
b10 .
b1 -
b0 ,
b10000000 #
b10110000000 "
$end
#0
$dumpvars
bx S
bx R
bx Q
bx P
bx O
bx N
bx M
bx L
bx J
bx I
bx G
bx F
bx D
bx C
bx A
bx @
0?
0>
bx =
b0 <
0;
x:
bx 9
bx 8
07
bx 6
bx 5
x4
bx 3
bx 2
bx 1
bx 0
bx +
bx *
b0 )
bx (
0'
b0 &
0%
0$
bx !
$end
#5000
b0 *
b0 O
b0 =
b0 N
b0 2
b0 9
b0 6
1$
#10000
0$
#15000
1$
#20000
0$
1'
#25000
1$
#30000
b1100011 D
b1100011 G
b1100011 J
b1100011011000110110001101100011 +
b1100011011000110110001101100011 A
b1100011 M
b0 C
b0 F
b0 I
b0 L
1?
b1 <
b0 0
b0 @
b0 P
17
b10 5
1;
bx00101011011111100001010100010110001010001010111011010010101001101010101111110111000101011000100000001001110011110100111100111100 !
bx00101011011111100001010100010110001010001010111011010010101001101010101111110111000101011000100000001001110011110100111100111100 1
14
b101011011111100001010100010110001010001010111011010010101001101010101111110111000101011000100000001001110011110100111100111100 3
1:
b101011011111100001010100010110001010001010111011010010101001101010101111110111000101011000100000001001110011110100111100111100 8
0$
1%
b101011011111100001010100010110001010001010111011010010101001101010101111110111000101011000100000001001110011110100111100111100 &
b101011011111100001010100010110001010001010111011010010101001101010101111110111000101011000100000001001110011110100111100111100 )
b101011011111100001010100010110001010001010111011010010101001101010101111110111000101011000100000001001110011110100111100111100 S
#35000
b1 D
b11101011 G
b10000100 J
b10001010100001001110101100000001 +
b10001010100001001110101100000001 A
b10001010 M
b1001 C
b111100 F
b1001111 I
b11001111 L
b1000000000000000000000000 *
b1000000000000000000000000 O
1?
b10 <
b11001111010011110011110000001001 0
b11001111010011110011110000001001 @
b11001111010011110011110000001001 P
bx1010000011111010111111100001011110001000010101000010110010110001001000111010001100111001001110010010101001101100011101100000010100101011011111100001010100010110001010001010111011010010101001101010101111110111000101011000100000001001110011110100111100111100 !
bx1010000011111010111111100001011110001000010101000010110010110001001000111010001100111001001110010010101001101100011101100000010100101011011111100001010100010110001010001010111011010010101001101010101111110111000101011000100000001001110011110100111100111100 1
b10100000111110101111111000010111100010000101010000101100101100010010001110100011001110010011100100101010011011000111011000000101 3
b10100000111110101111111000010111100010000101010000101100101100010010001110100011001110010011100100101010011011000111011000000101 8
b10001011100001001110101100000001 R
b10001010100001001110101100000001 Q
17
1;
b101011011111100001010100010110001010001010111011010010101001101010101111110111000101011000100000001001110011110100111100111100 2
b101011011111100001010100010110001010001010111011010010101001101010101111110111000101011000100000001001110011110100111100111100 9
b10 6
b1 =
b1 N
1$
#40000
1?
b10 <
17
1;
0$
0%
#45000
b1010000001110000110101111100101 Q
b11100101 D
b1101011 G
b111000 J
b1010000001110000110101111100101 +
b1010000001110000110101111100101 A
b1010000 M
b1010010001110000110101111100101 R
b101010 C
b101 F
b1110110 I
b1101100 L
b10000000000000000000000000 *
b10000000000000000000000000 O
1?
b11 <
b1101100011101100000010100101010 0
b1101100011101100000010100101010 @
b1101100011101100000010100101010 P
bx111100101100001010010101111100100111101010010110101110010100001101011001001101011000000001111010011100110101100111110110011111111010000011111010111111100001011110001000010101000010110010110001001000111010001100111001001110010010101001101100011101100000010100101011011111100001010100010110001010001010111011010010101001101010101111110111000101011000100000001001110011110100111100111100 !
bx111100101100001010010101111100100111101010010110101110010100001101011001001101011000000001111010011100110101100111110110011111111010000011111010111111100001011110001000010101000010110010110001001000111010001100111001001110010010101001101100011101100000010100101011011111100001010100010110001010001010111011010010101001101010101111110111000101011000100000001001110011110100111100111100 1
b11110010110000101001010111110010011110101001011010111001010000110101100100110101100000000111101001110011010110011111011001111111 3
b11110010110000101001010111110010011110101001011010111001010000110101100100110101100000000111101001110011010110011111011001111111 8
17
1;
b10100000111110101111111000010111100010000101010000101100101100010010001110100011001110010011100100101010011011000111011000000101 2
b10100000111110101111111000010111100010000101010000101100101100010010001110100011001110010011100100101010011011000111011000000101 9
b10 =
b10 N
1$
#50000
0$
#55000
b11001011010000101101001010001111 Q
b10001111 D
b11010010 G
b1000010 J
b11001011010000101101001010001111 +
b11001011010000101101001010001111 A
b11001011 M
b11001111010000101101001010001111 R
b1110011 C
b1111111 F
b11110110 I
b1011001 L
b100000000000000000000000000 *
b100000000000000000000000000 O
1?
b100 <
b1011001111101100111111101110011 0
b1011001111101100111111101110011 @
b1011001111101100111111101110011 P
bx00111101100000000100011101111101010001110001011011111110001111100001111000100011011111100100010001101101011110101000100000111011111100101100001010010101111100100111101010010110101110010100001101011001001101011000000001111010011100110101100111110110011111111010000011111010111111100001011110001000010101000010110010110001001000111010001100111001001110010010101001101100011101100000010100101011011111100001010100010110001010001010111011010010101001101010101111110111000101011000100000001001110011110100111100111100 !
bx00111101100000000100011101111101010001110001011011111110001111100001111000100011011111100100010001101101011110101000100000111011111100101100001010010101111100100111101010010110101110010100001101011001001101011000000001111010011100110101100111110110011111111010000011111010111111100001011110001000010101000010110010110001001000111010001100111001001110010010101001101100011101100000010100101011011111100001010100010110001010001010111011010010101001101010101111110111000101011000100000001001110011110100111100111100 1
b111101100000000100011101111101010001110001011011111110001111100001111000100011011111100100010001101101011110101000100000111011 3
b111101100000000100011101111101010001110001011011111110001111100001111000100011011111100100010001101101011110101000100000111011 8
17
1;
b11110010110000101001010111110010011110101001011010111001010000110101100100110101100000000111101001110011010110011111011001111111 2
b11110010110000101001010111110010011110101001011010111001010000110101100100110101100000000111101001110011010110011111011001111111 9
b11 =
b11 N
1$
#60000
0$
#65000
b11011010110001001110001000111100 Q
b111100 D
b11100010 G
b11000100 J
b11011010110001001110001000111100 +
b11011010110001001110001000111100 A
b11011010 M
b11010010110001001110001000111100 R
b1101101 C
b111011 F
b10001000 I
b1111010 L
b1000000000000000000000000000 *
b1000000000000000000000000000 O
1?
b101 <
b1111010100010000011101101101101 0
b1111010100010000011101101101101 @
b1111010100010000011101101101101 P
bx1110111101000100101001010100000110101000010100100101101101111111101101100111000100100101001110111101101100001011101011010000000000111101100000000100011101111101010001110001011011111110001111100001111000100011011111100100010001101101011110101000100000111011111100101100001010010101111100100111101010010110101110010100001101011001001101011000000001111010011100110101100111110110011111111010000011111010111111100001011110001000010101000010110010110001001000111010001100111001001110010010101001101100011101100000010100101011011111100001010100010110001010001010111011010010101001101010101111110111000101011000100000001001110011110100111100111100 !
bx1110111101000100101001010100000110101000010100100101101101111111101101100111000100100101001110111101101100001011101011010000000000111101100000000100011101111101010001110001011011111110001111100001111000100011011111100100010001101101011110101000100000111011111100101100001010010101111100100111101010010110101110010100001101011001001101011000000001111010011100110101100111110110011111111010000011111010111111100001011110001000010101000010110010110001001000111010001100111001001110010010101001101100011101100000010100101011011111100001010100010110001010001010111011010010101001101010101111110111000101011000100000001001110011110100111100111100 1
b11101111010001001010010101000001101010000101001001011011011111111011011001110001001001010011101111011011000010111010110100000000 3
b11101111010001001010010101000001101010000101001001011011011111111011011001110001001001010011101111011011000010111010110100000000 8
17
1;
b111101100000000100011101111101010001110001011011111110001111100001111000100011011111100100010001101101011110101000100000111011 2
b111101100000000100011101111101010001110001011011111110001111100001111000100011011111100100010001101101011110101000100000111011 9
b100 =
b100 N
1$
#70000
0$
#75000
b101011100101010110001110111001 Q
b10111001 D
b1100011 G
b10010101 J
b101011100101010110001110111001 +
b101011100101010110001110111001 A
b101011 M
b111011100101010110001110111001 R
b11011011 C
b0 F
b10101101 I
b1011 L
b10000000000000000000000000000 *
b10000000000000000000000000000 O
1?
b110 <
b1011101011010000000011011011 0
b1011101011010000000011011011 @
b1011101011010000000011011011 P
bx110101001101000111000110111110000111110010000011100111011000011111001010111100101011100010111100000100011111100100010101101111001110111101000100101001010100000110101000010100100101101101111111101101100111000100100101001110111101101100001011101011010000000000111101100000000100011101111101010001110001011011111110001111100001111000100011011111100100010001101101011110101000100000111011111100101100001010010101111100100111101010010110101110010100001101011001001101011000000001111010011100110101100111110110011111111010000011111010111111100001011110001000010101000010110010110001001000111010001100111001001110010010101001101100011101100000010100101011011111100001010100010110001010001010111011010010101001101010101111110111000101011000100000001001110011110100111100111100 !
bx110101001101000111000110111110000111110010000011100111011000011111001010111100101011100010111100000100011111100100010101101111001110111101000100101001010100000110101000010100100101101101111111101101100111000100100101001110111101101100001011101011010000000000111101100000000100011101111101010001110001011011111110001111100001111000100011011111100100010001101101011110101000100000111011111100101100001010010101111100100111101010010110101110010100001101011001001101011000000001111010011100110101100111110110011111111010000011111010111111100001011110001000010101000010110010110001001000111010001100111001001110010010101001101100011101100000010100101011011111100001010100010110001010001010111011010010101001101010101111110111000101011000100000001001110011110100111100111100 1
b11010100110100011100011011111000011111001000001110011101100001111100101011110010101110001011110000010001111110010001010110111100 3
b11010100110100011100011011111000011111001000001110011101100001111100101011110010101110001011110000010001111110010001010110111100 8
17
1;
b11101111010001001010010101000001101010000101001001011011011111111011011001110001001001010011101111011011000010111010110100000000 2
b11101111010001001010010101000001101010000101001001011011011111111011011001110001001001010011101111011011000010111010110100000000 9
b101 =
b101 N
1$
#80000
0$
#85000
b10011001010110010110010110000010 Q
b10000010 D
b1100101 G
b1011001 J
b10011001010110010110010110000010 +
b10011001010110010110010110000010 A
b10011001 M
b10111001010110010110010110000010 R
b10001 C
b10111100 F
b10101 I
b11111001 L
b100000000000000000000000000000 *
b100000000000000000000000000000 O
1?
b111 <
b11111001000101011011110000010001 0
b11111001000101011011110000010001 @
b11111001000101011011110000010001 P
bx01101101100010001010001101111010000100010000101100111110111111011101101111111001100001100100000111001010000000001001001111111101110101001101000111000110111110000111110010000011100111011000011111001010111100101011100010111100000100011111100100010101101111001110111101000100101001010100000110101000010100100101101101111111101101100111000100100101001110111101101100001011101011010000000000111101100000000100011101111101010001110001011011111110001111100001111000100011011111100100010001101101011110101000100000111011111100101100001010010101111100100111101010010110101110010100001101011001001101011000000001111010011100110101100111110110011111111010000011111010111111100001011110001000010101000010110010110001001000111010001100111001001110010010101001101100011101100000010100101011011111100001010100010110001010001010111011010010101001101010101111110111000101011000100000001001110011110100111100111100 !
bx01101101100010001010001101111010000100010000101100111110111111011101101111111001100001100100000111001010000000001001001111111101110101001101000111000110111110000111110010000011100111011000011111001010111100101011100010111100000100011111100100010101101111001110111101000100101001010100000110101000010100100101101101111111101101100111000100100101001110111101101100001011101011010000000000111101100000000100011101111101010001110001011011111110001111100001111000100011011111100100010001101101011110101000100000111011111100101100001010010101111100100111101010010110101110010100001101011001001101011000000001111010011100110101100111110110011111111010000011111010111111100001011110001000010101000010110010110001001000111010001100111001001110010010101001101100011101100000010100101011011111100001010100010110001010001010111011010010101001101010101111110111000101011000100000001001110011110100111100111100 1
b1101101100010001010001101111010000100010000101100111110111111011101101111111001100001100100000111001010000000001001001111111101 3
b1101101100010001010001101111010000100010000101100111110111111011101101111111001100001100100000111001010000000001001001111111101 8
17
1;
b11010100110100011100011011111000011111001000001110011101100001111100101011110010101110001011110000010001111110010001010110111100 2
b11010100110100011100011011111000011111001000001110011101100001111100101011110010101110001011110000010001111110010001010110111100 9
b110 =
b110 N
1$
#90000
0$
#95000
b1100011110111000101010001110100 Q
b1110100 D
b1010100 G
b11011100 J
b1100011110111000101010001110100 +
b1100011110111000101010001110100 A
b1100011 M
b100011110111000101010001110100 R
b11001010 C
b11111101 F
b10010011 I
b0 L
b1000000000000000000000000000000 *
b1000000000000000000000000000000 O
1?
b1000 <
b100100111111110111001010 0
b100100111111110111001010 @
b100100111111110111001010 P
bx0100111001010100111101110000111001011111010111111100100111110011100001001010011001001111101100100100111010100110110111000100111101101101100010001010001101111010000100010000101100111110111111011101101111111001100001100100000111001010000000001001001111111101110101001101000111000110111110000111110010000011100111011000011111001010111100101011100010111100000100011111100100010101101111001110111101000100101001010100000110101000010100100101101101111111101101100111000100100101001110111101101100001011101011010000000000111101100000000100011101111101010001110001011011111110001111100001111000100011011111100100010001101101011110101000100000111011111100101100001010010101111100100111101010010110101110010100001101011001001101011000000001111010011100110101100111110110011111111010000011111010111111100001011110001000010101000010110010110001001000111010001100111001001110010010101001101100011101100000010100101011011111100001010100010110001010001010111011010010101001101010101111110111000101011000100000001001110011110100111100111100 !
bx0100111001010100111101110000111001011111010111111100100111110011100001001010011001001111101100100100111010100110110111000100111101101101100010001010001101111010000100010000101100111110111111011101101111111001100001100100000111001010000000001001001111111101110101001101000111000110111110000111110010000011100111011000011111001010111100101011100010111100000100011111100100010101101111001110111101000100101001010100000110101000010100100101101101111111101101100111000100100101001110111101101100001011101011010000000000111101100000000100011101111101010001110001011011111110001111100001111000100011011111100100010001101101011110101000100000111011111100101100001010010101111100100111101010010110101110010100001101011001001101011000000001111010011100110101100111110110011111111010000011111010111111100001011110001000010101000010110010110001001000111010001100111001001110010010101001101100011101100000010100101011011111100001010100010110001010001010111011010010101001101010101111110111000101011000100000001001110011110100111100111100 1
b1001110010101001111011100001110010111110101111111001001111100111000010010100110010011111011001001001110101001101101110001001111 3
b1001110010101001111011100001110010111110101111111001001111100111000010010100110010011111011001001001110101001101101110001001111 8
17
1;
b1101101100010001010001101111010000100010000101100111110111111011101101111111001100001100100000111001010000000001001001111111101 2
b1101101100010001010001101111010000100010000101100111110111111011101101111111001100001100100000111001010000000001001001111111101 9
b111 =
b111 N
1$
#100000
0$
#105000
b100100100001101000010000101111 Q
b101111 D
b10000100 G
b10000110 J
b100100100001101000010000101111 +
b100100100001101000010000101111 A
b100100 M
b10100100100001101000010000101111 R
b1001110 C
b1001111 F
b11011100 I
b10100110 L
b10000000000000000000000000000000 *
b10000000000000000000000000000000 O
1?
b1001 <
b10100110110111000100111101001110 0
b10100110110111000100111101001110 @
b10100110110111000100111101001110 P
bx111010101101001001110011001000011011010110001101101110101101001000110001001010111111010101100000011111111000110100101001001011110100111001010100111101110000111001011111010111111100100111110011100001001010011001001111101100100100111010100110110111000100111101101101100010001010001101111010000100010000101100111110111111011101101111111001100001100100000111001010000000001001001111111101110101001101000111000110111110000111110010000011100111011000011111001010111100101011100010111100000100011111100100010101101111001110111101000100101001010100000110101000010100100101101101111111101101100111000100100101001110111101101100001011101011010000000000111101100000000100011101111101010001110001011011111110001111100001111000100011011111100100010001101101011110101000100000111011111100101100001010010101111100100111101010010110101110010100001101011001001101011000000001111010011100110101100111110110011111111010000011111010111111100001011110001000010101000010110010110001001000111010001100111001001110010010101001101100011101100000010100101011011111100001010100010110001010001010111011010010101001101010101111110111000101011000100000001001110011110100111100111100 !
bx111010101101001001110011001000011011010110001101101110101101001000110001001010111111010101100000011111111000110100101001001011110100111001010100111101110000111001011111010111111100100111110011100001001010011001001111101100100100111010100110110111000100111101101101100010001010001101111010000100010000101100111110111111011101101111111001100001100100000111001010000000001001001111111101110101001101000111000110111110000111110010000011100111011000011111001010111100101011100010111100000100011111100100010101101111001110111101000100101001010100000110101000010100100101101101111111101101100111000100100101001110111101101100001011101011010000000000111101100000000100011101111101010001110001011011111110001111100001111000100011011111100100010001101101011110101000100000111011111100101100001010010101111100100111101010010110101110010100001101011001001101011000000001111010011100110101100111110110011111111010000011111010111111100001011110001000010101000010110010110001001000111010001100111001001110010010101001101100011101100000010100101011011111100001010100010110001010001010111011010010101001101010101111110111000101011000100000001001110011110100111100111100 1
b11101010110100100111001100100001101101011000110110111010110100100011000100101011111101010110000001111111100011010010100100101111 3
b11101010110100100111001100100001101101011000110110111010110100100011000100101011111101010110000001111111100011010010100100101111 8
17
1;
b1001110010101001111011100001110010111110101111111001001111100111000010010100110010011111011001001001110101001101101110001001111 2
b1001110010101001111011100001110010111110101111111001001111100111000010010100110010011111011001001001110101001101101110001001111 9
b1000 =
b1000 N
1$
#110000
0$
#115000
b1011101101001010001010111010010 Q
b11010010 D
b10101 G
b10100101 J
b1011101101001010001010111010010 +
b1011101101001010001010111010010 A
b1011101 M
b1000110101001010001010111010010 R
b1111111 C
b101111 F
b101001 I
b10001101 L
b11011000000000000000000000000 *
b11011000000000000000000000000 O
1?
b1010 <
b10001101001010010010111101111111 0
b10001101001010010010111101111111 @
b10001101001010010010111101111111 P
bx10101100011101110110011011110011000110011111101011011100001000010010100011010001001010010100000101010111010111000000000001101110111010101101001001110011001000011011010110001101101110101101001000110001001010111111010101100000011111111000110100101001001011110100111001010100111101110000111001011111010111111100100111110011100001001010011001001111101100100100111010100110110111000100111101101101100010001010001101111010000100010000101100111110111111011101101111111001100001100100000111001010000000001001001111111101110101001101000111000110111110000111110010000011100111011000011111001010111100101011100010111100000100011111100100010101101111001110111101000100101001010100000110101000010100100101101101111111101101100111000100100101001110111101101100001011101011010000000000111101100000000100011101111101010001110001011011111110001111100001111000100011011111100100010001101101011110101000100000111011111100101100001010010101111100100111101010010110101110010100001101011001001101011000000001111010011100110101100111110110011111111010000011111010111111100001011110001000010101000010110010110001001000111010001100111001001110010010101001101100011101100000010100101011011111100001010100010110001010001010111011010010101001101010101111110111000101011000100000001001110011110100111100111100 !
bx10101100011101110110011011110011000110011111101011011100001000010010100011010001001010010100000101010111010111000000000001101110111010101101001001110011001000011011010110001101101110101101001000110001001010111111010101100000011111111000110100101001001011110100111001010100111101110000111001011111010111111100100111110011100001001010011001001111101100100100111010100110110111000100111101101101100010001010001101111010000100010000101100111110111111011101101111111001100001100100000111001010000000001001001111111101110101001101000111000110111110000111110010000011100111011000011111001010111100101011100010111100000100011111100100010101101111001110111101000100101001010100000110101000010100100101101101111111101101100111000100100101001110111101101100001011101011010000000000111101100000000100011101111101010001110001011011111110001111100001111000100011011111100100010001101101011110101000100000111011111100101100001010010101111100100111101010010110101110010100001101011001001101011000000001111010011100110101100111110110011111111010000011111010111111100001011110001000010101000010110010110001001000111010001100111001001110010010101001101100011101100000010100101011011111100001010100010110001010001010111011010010101001101010101111110111000101011000100000001001110011110100111100111100 1
b10101100011101110110011011110011000110011111101011011100001000010010100011010001001010010100000101010111010111000000000001101110 3
b10101100011101110110011011110011000110011111101011011100001000010010100011010001001010010100000101010111010111000000000001101110 8
17
1;
b11101010110100100111001100100001101101011000110110111010110100100011000100101011111101010110000001111111100011010010100100101111 2
b11101010110100100111001100100001101101011000110110111010110100100011000100101011111101010110000001111111100011010010100100101111 9
b1001 =
b1001 N
1$
#120000
0$
#125000
b1001010011000111001111101011011 Q
b1011011 D
b10011111 G
b1100011 J
b1001010011000111001111101011011 +
b1001010011000111001111101011011 A
b1001010 M
b1111100011000111001111101011011 R
b1010111 C
b1101110 F
b0 I
b1011100 L
b110110000000000000000000000000 *
b110110000000000000000000000000 O
1?
b1011 <
b1011100000000000110111001010111 0
b1011100000000000110111001010111 @
b1011100000000000110111001010111 P
b0 5
b1101000000010100111110011010100011001001111011100010010110001001111000010011111100001100110010001011011001100011000011001010011010101100011101110110011011110011000110011111101011011100001000010010100011010001001010010100000101010111010111000000000001101110111010101101001001110011001000011011010110001101101110101101001000110001001010111111010101100000011111111000110100101001001011110100111001010100111101110000111001011111010111111100100111110011100001001010011001001111101100100100111010100110110111000100111101101101100010001010001101111010000100010000101100111110111111011101101111111001100001100100000111001010000000001001001111111101110101001101000111000110111110000111110010000011100111011000011111001010111100101011100010111100000100011111100100010101101111001110111101000100101001010100000110101000010100100101101101111111101101100111000100100101001110111101101100001011101011010000000000111101100000000100011101111101010001110001011011111110001111100001111000100011011111100100010001101101011110101000100000111011111100101100001010010101111100100111101010010110101110010100001101011001001101011000000001111010011100110101100111110110011111111010000011111010111111100001011110001000010101000010110010110001001000111010001100111001001110010010101001101100011101100000010100101011011111100001010100010110001010001010111011010010101001101010101111110111000101011000100000001001110011110100111100111100 !
b1101000000010100111110011010100011001001111011100010010110001001111000010011111100001100110010001011011001100011000011001010011010101100011101110110011011110011000110011111101011011100001000010010100011010001001010010100000101010111010111000000000001101110111010101101001001110011001000011011010110001101101110101101001000110001001010111111010101100000011111111000110100101001001011110100111001010100111101110000111001011111010111111100100111110011100001001010011001001111101100100100111010100110110111000100111101101101100010001010001101111010000100010000101100111110111111011101101111111001100001100100000111001010000000001001001111111101110101001101000111000110111110000111110010000011100111011000011111001010111100101011100010111100000100011111100100010101101111001110111101000100101001010100000110101000010100100101101101111111101101100111000100100101001110111101101100001011101011010000000000111101100000000100011101111101010001110001011011111110001111100001111000100011011111100100010001101101011110101000100000111011111100101100001010010101111100100111101010010110101110010100001101011001001101011000000001111010011100110101100111110110011111111010000011111010111111100001011110001000010101000010110010110001001000111010001100111001001110010010101001101100011101100000010100101011011111100001010100010110001010001010111011010010101001101010101111110111000101011000100000001001110011110100111100111100 1
b11010000000101001111100110101000110010011110111000100101100010011110000100111111000011001100100010110110011000110000110010100110 3
b11010000000101001111100110101000110010011110111000100101100010011110000100111111000011001100100010110110011000110000110010100110 8
17
1;
b10101100011101110110011011110011000110011111101011011100001000010010100011010001001010010100000101010111010111000000000001101110 2
b10101100011101110110011011110011000110011111101011011100001000010010100011010001001010010100000101010111010111000000000001101110 9
b1010 =
b1010 N
1$
#130000
0$
#135000
b0 *
b0 O
0?
b0 <
07
0;
b11010000000101001111100110101000110010011110111000100101100010011110000100111111000011001100100010110110011000110000110010100110 2
b11010000000101001111100110101000110010011110111000100101100010011110000100111111000011001100100010110110011000110000110010100110 9
b0 6
b1011 =
b1011 N
1$
#140000
0$
#145000
1$
#150000
0$
#155000
1$
#160000
0$
#165000
1$
#170000
0$
#175000
1$
#180000
0$
#185000
1$
#190000
b1001110 D
b100100 G
b11111110 J
b11111011111111100010010001001110 +
b11111011111111100010010001001110 A
b11111011 M
b10110110 C
b10100110 F
b1100 I
b1100011 L
1?
b1100 <
b1100011000011001010011010110110 0
b1100011000011001010011010110110 @
b1100011000011001010011010110110 P
17
b10 5
1;
b101011011111100001010100010110001010001010111011010010101001101010101111110111000101011000100000001001110011110100111100111100 3
b101011011111100001010100010110001010001010111011010010101001101010101111110111000101011000100000001001110011110100111100111100 8
0$
1%
b1011 (
#195000
b1 D
b11101011 G
b10000100 J
b10001010100001001110101100000001 +
b10001010100001001110101100000001 A
b10001010 M
b1001 C
b111100 F
b1001111 I
b11001111 L
1?
b1101 <
b11001111010011110011110000001001 0
b11001111010011110011110000001001 @
b11001111010011110011110000001001 P
b0 5
b10100001111110101111111000010111100010010101010000101100101100010010001010100011001110010011100100101011011011000111011000000101 3
b10100001111110101111111000010111100010010101010000101100101100010010001010100011001110010011100100101011011011000111011000000101 8
b10001010100001001110101100000001 R
b10001010100001001110101100000001 Q
17
1;
b101011011111100001010100010110001010001010111011010010101001101010101111110111000101011000100000001001110011110100111100111100 2
b101011011111100001010100010110001010001010111011010010101001101010101111110111000101011000100000001001110011110100111100111100 9
b10 6
b1100 =
b1100 N
1$
#200000
1?
b1101 <
17
1;
0$
0%
#205000
0?
b0 <
07
0;
b10100001111110101111111000010111100010010101010000101100101100010010001010100011001110010011100100101011011011000111011000000101 2
b10100001111110101111111000010111100010010101010000101100101100010010001010100011001110010011100100101011011011000111011000000101 9
b0 6
b1101 =
b1101 N
1$
